{
  "N2": {
    "iaho": 2,
    "De": 9.904795,
    "re": 1.0977,
    "alpha": 2.81971,
    "D0": 9.82163,
    "Ev0": 0.063578,
    "partner": ["N2", "O2", "N", "O"]
  },
  "NO": {
    "iaho": 2,
    "De": 6.623,
    "re": 1.159,
    "alpha": 2.83,
    "D0": 6.55879,
    "Ev0": 0.063287,
    "partner": ["N2","N","O"]
  },
  "O2": {
    "iaho": 2,
    "De": 5.211,
    "re": 1.207,
    "alpha": 2.78,
    "D0": 5.21275,
    "Ev0": 0.09745,
    "partner": ["N2","O2","N","O"]
  }
}
